{
  "apiName": "Advisr_Client__c",
  "associateEntityType": null,
  "associateParentEntity": null,
  "childRelationships": [
    {
      "childObjectApiName": "Advisr_Campaign__c",
      "fieldName": "Advisr_Client__c",
      "junctionIdListNames": [],
      "junctionReferenceTo": [],
      "relationshipName": "Advisr_Campaigns__r"
    }
  ],
  "createable": true,
  "custom": true,
  "defaultRecordTypeId": "012000000000000AAA",
  "deletable": true,
  "dependentFields": {},
  "feedEnabled": false,
  "fields": {
    "Advisr_Campaign_Budget__c": {
      "apiName": "Advisr_Campaign_Budget__c",
      "calculated": false,
      "compound": false,
      "compoundComponentName": null,
      "compoundFieldName": null,
      "controllerName": null,
      "controllingFields": [],
      "createable": true,
      "custom": true,
      "dataType": "Currency",
      "extraTypeInfo": null,
      "filterable": true,
      "filteredLookupInfo": null,
      "highScaleNumber": false,
      "htmlFormatted": false,
      "inlineHelpText": null,
      "label": "Advisr Campaign Budget",
      "length": 0,
      "nameField": false,
      "polymorphicForeignKey": false,
      "precision": 18,
      "reference": false,
      "referenceTargetField": null,
      "referenceToInfos": [],
      "relationshipName": null,
      "required": false,
      "scale": 2,
      "searchPrefilterable": false,
      "sortable": true,
      "unique": false,
      "updateable": true
    },
    "Advisr_Campaign_Id__c": {
      "apiName": "Advisr_Campaign_Id__c",
      "calculated": false,
      "compound": false,
      "compoundComponentName": null,
      "compoundFieldName": null,
      "controllerName": null,
      "controllingFields": [],
      "createable": true,
      "custom": true,
      "dataType": "Double",
      "extraTypeInfo": null,
      "filterable": true,
      "filteredLookupInfo": null,
      "highScaleNumber": false,
      "htmlFormatted": false,
      "inlineHelpText": null,
      "label": "Advisr Campaign Id",
      "length": 0,
      "nameField": false,
      "polymorphicForeignKey": false,
      "precision": 18,
      "reference": false,
      "referenceTargetField": null,
      "referenceToInfos": [],
      "relationshipName": null,
      "required": false,
      "scale": 0,
      "searchPrefilterable": false,
      "sortable": true,
      "unique": true,
      "updateable": true
    },
    "Advisr_Campaign_Name__c": {
      "apiName": "Advisr_Campaign_Name__c",
      "calculated": false,
      "compound": false,
      "compoundComponentName": null,
      "compoundFieldName": null,
      "controllerName": null,
      "controllingFields": [],
      "createable": true,
      "custom": true,
      "dataType": "String",
      "extraTypeInfo": null,
      "filterable": true,
      "filteredLookupInfo": null,
      "highScaleNumber": false,
      "htmlFormatted": false,
      "inlineHelpText": null,
      "label": "Advisr Campaign Name",
      "length": 255,
      "nameField": false,
      "polymorphicForeignKey": false,
      "precision": 0,
      "reference": false,
      "referenceTargetField": null,
      "referenceToInfos": [],
      "relationshipName": null,
      "required": false,
      "scale": 0,
      "searchPrefilterable": false,
      "sortable": true,
      "unique": false,
      "updateable": true
    },
    "Advisr_Campaign_Url__c": {
      "apiName": "Advisr_Campaign_Url__c",
      "calculated": true,
      "compound": false,
      "compoundComponentName": null,
      "compoundFieldName": null,
      "controllerName": null,
      "controllingFields": [],
      "createable": false,
      "custom": true,
      "dataType": "String",
      "extraTypeInfo": null,
      "filterable": true,
      "filteredLookupInfo": null,
      "highScaleNumber": false,
      "htmlFormatted": false,
      "inlineHelpText": null,
      "label": "Advisr Campaign Url",
      "length": 1300,
      "nameField": false,
      "polymorphicForeignKey": false,
      "precision": 0,
      "reference": false,
      "referenceTargetField": null,
      "referenceToInfos": [],
      "relationshipName": null,
      "required": false,
      "scale": 0,
      "searchPrefilterable": false,
      "sortable": true,
      "unique": false,
      "updateable": false
    },
    "Advisr_Campaign_Is_Primary__c": {
      "apiName": "Advisr_Campaign_Is_Primary__c",
      "calculated": false,
      "compound": false,
      "compoundComponentName": null,
      "compoundFieldName": null,
      "controllerName": null,
      "controllingFields": [],
      "createable": true,
      "custom": true,
      "dataType": "Boolean",
      "extraTypeInfo": null,
      "filterable": true,
      "filteredLookupInfo": null,
      "highScaleNumber": false,
      "htmlFormatted": false,
      "inlineHelpText": null,
      "label": "Is Primary",
      "length": 0,
      "nameField": false,
      "polymorphicForeignKey": false,
      "precision": 0,
      "reference": false,
      "referenceTargetField": null,
      "referenceToInfos": [],
      "relationshipName": null,
      "required": true,
      "scale": 0,
      "searchPrefilterable": false,
      "sortable": true,
      "unique": false,
      "updateable": true
    },
    "CloneSourceId": {
      "apiName": "CloneSourceId",
      "calculated": false,
      "compound": false,
      "compoundComponentName": null,
      "compoundFieldName": null,
      "controllerName": null,
      "controllingFields": [],
      "createable": false,
      "custom": false,
      "dataType": "Reference",
      "extraTypeInfo": null,
      "filterable": true,
      "filteredLookupInfo": null,
      "highScaleNumber": false,
      "htmlFormatted": false,
      "inlineHelpText": null,
      "label": "Clone Source",
      "length": 18,
      "nameField": false,
      "polymorphicForeignKey": false,
      "precision": 0,
      "reference": true,
      "referenceTargetField": null,
      "referenceToInfos": [],
      "relationshipName": null,
      "required": false,
      "scale": 0,
      "searchPrefilterable": false,
      "sortable": true,
      "unique": false,
      "updateable": false
    },
    "CreatedById": {
      "apiName": "CreatedById",
      "calculated": false,
      "compound": false,
      "compoundComponentName": null,
      "compoundFieldName": null,
      "controllerName": null,
      "controllingFields": [],
      "createable": false,
      "custom": false,
      "dataType": "Reference",
      "extraTypeInfo": null,
      "filterable": true,
      "filteredLookupInfo": null,
      "highScaleNumber": false,
      "htmlFormatted": false,
      "inlineHelpText": null,
      "label": "Created By ID",
      "length": 18,
      "nameField": false,
      "polymorphicForeignKey": false,
      "precision": 0,
      "reference": true,
      "referenceTargetField": null,
      "referenceToInfos": [
        { "apiName": "User", "nameFields": ["FirstName", "LastName", "Name"] }
      ],
      "relationshipName": "CreatedBy",
      "required": true,
      "scale": 0,
      "searchPrefilterable": false,
      "sortable": true,
      "unique": false,
      "updateable": false
    },
    "CreatedDate": {
      "apiName": "CreatedDate",
      "calculated": false,
      "compound": false,
      "compoundComponentName": null,
      "compoundFieldName": null,
      "controllerName": null,
      "controllingFields": [],
      "createable": false,
      "custom": false,
      "dataType": "DateTime",
      "extraTypeInfo": null,
      "filterable": true,
      "filteredLookupInfo": null,
      "highScaleNumber": false,
      "htmlFormatted": false,
      "inlineHelpText": null,
      "label": "Created Date",
      "length": 0,
      "nameField": false,
      "polymorphicForeignKey": false,
      "precision": 0,
      "reference": false,
      "referenceTargetField": null,
      "referenceToInfos": [],
      "relationshipName": null,
      "required": true,
      "scale": 0,
      "searchPrefilterable": false,
      "sortable": true,
      "unique": false,
      "updateable": false
    },
    "Id": {
      "apiName": "Id",
      "calculated": false,
      "compound": false,
      "compoundComponentName": null,
      "compoundFieldName": null,
      "controllerName": null,
      "controllingFields": [],
      "createable": false,
      "custom": false,
      "dataType": "String",
      "extraTypeInfo": null,
      "filterable": true,
      "filteredLookupInfo": null,
      "highScaleNumber": false,
      "htmlFormatted": false,
      "inlineHelpText": null,
      "label": "Record ID",
      "length": 18,
      "nameField": false,
      "polymorphicForeignKey": false,
      "precision": 0,
      "reference": false,
      "referenceTargetField": null,
      "referenceToInfos": [],
      "relationshipName": null,
      "required": true,
      "scale": 0,
      "searchPrefilterable": false,
      "sortable": true,
      "unique": false,
      "updateable": false
    },
    "IsDeleted": {
      "apiName": "IsDeleted",
      "calculated": false,
      "compound": false,
      "compoundComponentName": null,
      "compoundFieldName": null,
      "controllerName": null,
      "controllingFields": [],
      "createable": false,
      "custom": false,
      "dataType": "Boolean",
      "extraTypeInfo": null,
      "filterable": true,
      "filteredLookupInfo": null,
      "highScaleNumber": false,
      "htmlFormatted": false,
      "inlineHelpText": null,
      "label": "Deleted",
      "length": 0,
      "nameField": false,
      "polymorphicForeignKey": false,
      "precision": 0,
      "reference": false,
      "referenceTargetField": null,
      "referenceToInfos": [],
      "relationshipName": null,
      "required": true,
      "scale": 0,
      "searchPrefilterable": false,
      "sortable": true,
      "unique": false,
      "updateable": false
    },
    "LastModifiedById": {
      "apiName": "LastModifiedById",
      "calculated": false,
      "compound": false,
      "compoundComponentName": null,
      "compoundFieldName": null,
      "controllerName": null,
      "controllingFields": [],
      "createable": false,
      "custom": false,
      "dataType": "Reference",
      "extraTypeInfo": null,
      "filterable": true,
      "filteredLookupInfo": null,
      "highScaleNumber": false,
      "htmlFormatted": false,
      "inlineHelpText": null,
      "label": "Last Modified By ID",
      "length": 18,
      "nameField": false,
      "polymorphicForeignKey": false,
      "precision": 0,
      "reference": true,
      "referenceTargetField": null,
      "referenceToInfos": [
        { "apiName": "User", "nameFields": ["FirstName", "LastName", "Name"] }
      ],
      "relationshipName": "LastModifiedBy",
      "required": true,
      "scale": 0,
      "searchPrefilterable": false,
      "sortable": true,
      "unique": false,
      "updateable": false
    },
    "LastModifiedDate": {
      "apiName": "LastModifiedDate",
      "calculated": false,
      "compound": false,
      "compoundComponentName": null,
      "compoundFieldName": null,
      "controllerName": null,
      "controllingFields": [],
      "createable": false,
      "custom": false,
      "dataType": "DateTime",
      "extraTypeInfo": null,
      "filterable": true,
      "filteredLookupInfo": null,
      "highScaleNumber": false,
      "htmlFormatted": false,
      "inlineHelpText": null,
      "label": "Last Modified Date",
      "length": 0,
      "nameField": false,
      "polymorphicForeignKey": false,
      "precision": 0,
      "reference": false,
      "referenceTargetField": null,
      "referenceToInfos": [],
      "relationshipName": null,
      "required": true,
      "scale": 0,
      "searchPrefilterable": false,
      "sortable": true,
      "unique": false,
      "updateable": false
    },
    "Name": {
      "apiName": "Name",
      "calculated": false,
      "compound": false,
      "compoundComponentName": null,
      "compoundFieldName": null,
      "controllerName": null,
      "controllingFields": [],
      "createable": true,
      "custom": false,
      "dataType": "String",
      "extraTypeInfo": null,
      "filterable": true,
      "filteredLookupInfo": null,
      "highScaleNumber": false,
      "htmlFormatted": false,
      "inlineHelpText": null,
      "label": "Advisr Campaign Name",
      "length": 80,
      "nameField": true,
      "polymorphicForeignKey": false,
      "precision": 0,
      "reference": false,
      "referenceTargetField": null,
      "referenceToInfos": [],
      "relationshipName": null,
      "required": false,
      "scale": 0,
      "searchPrefilterable": false,
      "sortable": true,
      "unique": false,
      "updateable": true
    },
    "Opportunity__c": {
      "apiName": "Opportunity__c",
      "calculated": false,
      "compound": false,
      "compoundComponentName": null,
      "compoundFieldName": null,
      "controllerName": null,
      "controllingFields": [],
      "createable": true,
      "custom": true,
      "dataType": "Reference",
      "extraTypeInfo": null,
      "filterable": true,
      "filteredLookupInfo": null,
      "highScaleNumber": false,
      "htmlFormatted": false,
      "inlineHelpText": null,
      "label": "Opportunity",
      "length": 18,
      "nameField": false,
      "polymorphicForeignKey": false,
      "precision": 0,
      "reference": true,
      "referenceTargetField": null,
      "referenceToInfos": [
        { "apiName": "Opportunity", "nameFields": ["Name"] }
      ],
      "relationshipName": "Opportunity__r",
      "required": false,
      "scale": 0,
      "searchPrefilterable": false,
      "sortable": true,
      "unique": false,
      "updateable": true
    },
    "OwnerId": {
      "apiName": "OwnerId",
      "calculated": false,
      "compound": false,
      "compoundComponentName": null,
      "compoundFieldName": null,
      "controllerName": null,
      "controllingFields": [],
      "createable": true,
      "custom": false,
      "dataType": "Reference",
      "extraTypeInfo": null,
      "filterable": true,
      "filteredLookupInfo": null,
      "highScaleNumber": false,
      "htmlFormatted": false,
      "inlineHelpText": null,
      "label": "Owner ID",
      "length": 18,
      "nameField": false,
      "polymorphicForeignKey": true,
      "precision": 0,
      "reference": true,
      "referenceTargetField": null,
      "referenceToInfos": [
        { "apiName": "Group", "nameFields": ["Name"] },
        { "apiName": "User", "nameFields": ["FirstName", "LastName", "Name"] }
      ],
      "relationshipName": "Owner",
      "required": true,
      "scale": 0,
      "searchPrefilterable": false,
      "sortable": true,
      "unique": false,
      "updateable": true
    },
    "SystemModstamp": {
      "apiName": "SystemModstamp",
      "calculated": false,
      "compound": false,
      "compoundComponentName": null,
      "compoundFieldName": null,
      "controllerName": null,
      "controllingFields": [],
      "createable": false,
      "custom": false,
      "dataType": "DateTime",
      "extraTypeInfo": null,
      "filterable": true,
      "filteredLookupInfo": null,
      "highScaleNumber": false,
      "htmlFormatted": false,
      "inlineHelpText": null,
      "label": "System Modstamp",
      "length": 0,
      "nameField": false,
      "polymorphicForeignKey": false,
      "precision": 0,
      "reference": false,
      "referenceTargetField": null,
      "referenceToInfos": [],
      "relationshipName": null,
      "required": true,
      "scale": 0,
      "searchPrefilterable": false,
      "sortable": true,
      "unique": false,
      "updateable": false
    }
  },
  "keyPrefix": "a00",
  "label": "Advisr Campaign",
  "labelPlural": "Advisr Campaigns",
  "layoutable": true,
  "mruEnabled": false,
  "nameFields": ["Name"],
  "queryable": true,
  "recordTypeInfos": {
    "012000000000000AAA": {
      "available": true,
      "defaultRecordTypeMapping": true,
      "master": true,
      "name": "Master",
      "recordTypeId": "012000000000000AAA"
    }
  },
  "searchable": false,
  "themeInfo": { "color": "747E96", "iconUrl": null },
  "updateable": true
}